Which countries have 'won' at Covid-19?
…
First, let’s get the dates into a single column using pivot_longer.

covidconfirmedlong <- 
  covidconfirmed %>%
  pivot_longer(
    cols = matches("[0-9]"),
    names_to = "date",
    values_to = "cases"
  )

covidconfirmedlong

## # A tibble: 77,452 x 6
##    `Province/State` `Country/Region`   Lat  Long date    cases
##    <chr>            <chr>            <dbl> <dbl> <chr>   <dbl>
##  1 <NA>             Afghanistan       33.9  67.7 1/22/20     0
##  2 <NA>             Afghanistan       33.9  67.7 1/23/20     0
##  3 <NA>             Afghanistan       33.9  67.7 1/24/20     0
##  4 <NA>             Afghanistan       33.9  67.7 1/25/20     0
##  5 <NA>             Afghanistan       33.9  67.7 1/26/20     0
##  6 <NA>             Afghanistan       33.9  67.7 1/27/20     0
##  7 <NA>             Afghanistan       33.9  67.7 1/28/20     0
##  8 <NA>             Afghanistan       33.9  67.7 1/29/20     0
##  9 <NA>             Afghanistan       33.9  67.7 1/30/20     0
## 10 <NA>             Afghanistan       33.9  67.7 1/31/20     0
## # … with 77,442 more rows

The inconsistent headers are stressing me out, so let’s fix that too.

I’ll also convert the date column from string to date format using lubridate.

covidconfirmedlong <- 
  covidconfirmedlong %>% 
  janitor::clean_names() %>% 
  mutate(date = mdy(date))  # Convert date from character to date

covidconfirmedlong

## # A tibble: 77,452 x 6
##    province_state country_region   lat  long date       cases
##    <chr>          <chr>          <dbl> <dbl> <date>     <dbl>
##  1 <NA>           Afghanistan     33.9  67.7 2020-01-22     0
##  2 <NA>           Afghanistan     33.9  67.7 2020-01-23     0
##  3 <NA>           Afghanistan     33.9  67.7 2020-01-24     0
##  4 <NA>           Afghanistan     33.9  67.7 2020-01-25     0
##  5 <NA>           Afghanistan     33.9  67.7 2020-01-26     0
##  6 <NA>           Afghanistan     33.9  67.7 2020-01-27     0
##  7 <NA>           Afghanistan     33.9  67.7 2020-01-28     0
##  8 <NA>           Afghanistan     33.9  67.7 2020-01-29     0
##  9 <NA>           Afghanistan     33.9  67.7 2020-01-30     0
## 10 <NA>           Afghanistan     33.9  67.7 2020-01-31     0
## # … with 77,442 more rows
…
# Countries with no regional breakdown
covidconfirmedlong_1 <- 
  covidconfirmedlong %>% 
  filter(is.na(province_state)) %>% # Filtering for only country-wide observations
  select(-province_state) %>% # Drop the now-empty column
  filter(cases >= 10)

covidconfirmedlong_1

## # A tibble: 42,735 x 5
##    country_region   lat  long date       cases
##    <chr>          <dbl> <dbl> <date>     <dbl>
##  1 Afghanistan     33.9  67.7 2020-03-14    11
##  2 Afghanistan     33.9  67.7 2020-03-15    16
##  3 Afghanistan     33.9  67.7 2020-03-16    21
##  4 Afghanistan     33.9  67.7 2020-03-17    22
##  5 Afghanistan     33.9  67.7 2020-03-18    22
##  6 Afghanistan     33.9  67.7 2020-03-19    22
##  7 Afghanistan     33.9  67.7 2020-03-20    24
##  8 Afghanistan     33.9  67.7 2020-03-21    24
##  9 Afghanistan     33.9  67.7 2020-03-22    40
## 10 Afghanistan     33.9  67.7 2020-03-23    40
## # … with 42,725 more rows
…
covidconfirmedlong_2 <- 
  covidconfirmedlong %>% 
  filter(country_region %in% c("Canada", "China", "Australia")) %>% 
  group_by(country_region, date) %>% 
  summarize(
    cases = sum(cases, na.rm = TRUE)
  ) %>% 
  filter(cases >= 10) 

## `summarise()` regrouping output by 'country_region' (override with `.groups` argument)

covidconfirmedlong_2

## # A tibble: 824 x 3
## # Groups:   country_region [3]
##    country_region date       cases
##    <chr>          <date>     <dbl>
##  1 Australia      2020-02-01    12
##  2 Australia      2020-02-02    12
##  3 Australia      2020-02-03    12
##  4 Australia      2020-02-04    13
##  5 Australia      2020-02-05    13
##  6 Australia      2020-02-06    14
##  7 Australia      2020-02-07    15
##  8 Australia      2020-02-08    15
##  9 Australia      2020-02-09    15
## 10 Australia      2020-02-10    15
## # … with 814 more rows

covidconfirmedlong <- 
  bind_rows(
    covidconfirmedlong_1 %>% select(-lat, -long),
    covidconfirmedlong_2
  )

# Let's check that those countries are in there

covidconfirmedlong %>% 
  filter(country_region %in% c("Australia", "Canada", "China"))

## # A tibble: 824 x 3
##    country_region date       cases
##    <chr>          <date>     <dbl>
##  1 Australia      2020-02-01    12
##  2 Australia      2020-02-02    12
##  3 Australia      2020-02-03    12
##  4 Australia      2020-02-04    13
##  5 Australia      2020-02-05    13
##  6 Australia      2020-02-06    14
##  7 Australia      2020-02-07    15
##  8 Australia      2020-02-08    15
##  9 Australia      2020-02-09    15
## 10 Australia      2020-02-10    15
## # … with 814 more rows
…
covidconfirmeddates

## # A tibble: 28,190 x 5
##    country_region date       cases firstdate  maxdate   
##    <chr>          <date>     <dbl> <date>     <date>    
##  1 Afghanistan    2020-03-14    11 2020-03-14 2020-08-11
##  2 Afghanistan    2020-03-15    16 2020-03-14 2020-08-11
##  3 Afghanistan    2020-03-16    21 2020-03-14 2020-08-11
##  4 Afghanistan    2020-03-17    22 2020-03-14 2020-08-11
##  5 Afghanistan    2020-03-18    22 2020-03-14 2020-08-11
##  6 Afghanistan    2020-03-19    22 2020-03-14 2020-08-11
##  7 Afghanistan    2020-03-20    24 2020-03-14 2020-08-11
##  8 Afghanistan    2020-03-21    24 2020-03-14 2020-08-11
##  9 Afghanistan    2020-03-22    40 2020-03-14 2020-08-11
## 10 Afghanistan    2020-03-23    40 2020-03-14 2020-08-11
## # … with 28,180 more rows
…
covidconfirmeddates <- 
  covidconfirmeddates %>% 
  group_by(country_region) %>% 
  mutate(
    days = date - firstdate, # Days from day zero
    reporteddailycases = cases - lag(cases), # Subtract cases from previous day
    meanreportedcases = 
      RcppRoll::roll_mean( # Using RcppRoll here for rolling means
        reporteddailycases, n = 7, fill = NA, align = "right", na.rm = TRUE
      )
  )

covidconfirmeddates

## # A tibble: 28,190 x 8
## # Groups:   country_region [188]
##    country_region date       cases firstdate  maxdate    days  reporteddailyca…
##    <chr>          <date>     <dbl> <date>     <date>     <drt>            <dbl>
##  1 Afghanistan    2020-03-14    11 2020-03-14 2020-08-11 0 da…               NA
##  2 Afghanistan    2020-03-15    16 2020-03-14 2020-08-11 1 da…                5
##  3 Afghanistan    2020-03-16    21 2020-03-14 2020-08-11 2 da…                5
##  4 Afghanistan    2020-03-17    22 2020-03-14 2020-08-11 3 da…                1
##  5 Afghanistan    2020-03-18    22 2020-03-14 2020-08-11 4 da…                0
##  6 Afghanistan    2020-03-19    22 2020-03-14 2020-08-11 5 da…                0
##  7 Afghanistan    2020-03-20    24 2020-03-14 2020-08-11 6 da…                2
##  8 Afghanistan    2020-03-21    24 2020-03-14 2020-08-11 7 da…                0
##  9 Afghanistan    2020-03-22    40 2020-03-14 2020-08-11 8 da…               16
## 10 Afghanistan    2020-03-23    40 2020-03-14 2020-08-11 9 da…                0
## # … with 28,180 more rows, and 1 more variable: meanreportedcases <dbl>
…
